<svg width="61" height="61" viewBox="0 0 61 61" fill="none" xmlns="http://www.w3.org/2000/svg">
<g opacity="0.5">
<path opacity="0.5" d="M30.5 61C47.3447 61 61 47.3447 61 30.5C61 13.6553 47.3447 0 30.5 0C13.6553 0 0 13.6553 0 30.5C0 47.3447 13.6553 61 30.5 61Z" fill="url(#paint0_linear)"/>
</g>
<path d="M30.5594 60.6195C47.0489 60.6195 60.4162 47.2521 60.4162 30.7627C60.4162 14.2732 47.0489 0.905884 30.5594 0.905884C14.07 0.905884 0.702637 14.2732 0.702637 30.7627C0.702637 47.2521 14.07 60.6195 30.5594 60.6195Z" fill="#F5F5F5"/>
<path d="M25.6372 59.5966C25.4541 59.5641 25.2712 59.5304 25.0886 59.4955C24.9695 56.0385 24.5607 48.9432 23.1666 41.5122C22.4041 37.4453 21.3456 33.2763 19.8774 29.5496C19.3745 28.2601 18.8 26.9996 18.1566 25.7741C16.6731 22.9722 14.8738 20.6134 12.6919 19.0153L13.0131 18.5768C14.8278 19.9069 16.4587 21.7742 17.9058 24.1787C18.3398 24.8988 18.7567 25.667 19.1565 26.4833C19.5851 27.3568 19.9938 28.2841 20.3828 29.2653C20.6309 29.8898 20.8706 30.5358 21.102 31.2036C22.109 34.1029 22.965 37.411 23.6701 41.1278C23.8262 41.949 23.9748 42.7903 24.1159 43.6517C25.2086 50.3266 25.538 56.4978 25.6372 59.5966Z" fill="#91C787"/>
<path d="M18.7088 57.5067C18.5138 57.4219 18.3189 57.3343 18.1258 57.2441C17.9372 55.1957 17.5907 52.6547 16.9573 50.2426C16.6798 49.1593 16.3236 48.0977 15.8916 47.0663C15.1688 45.3744 14.233 43.936 13.0229 43.049L13.3442 42.6113C14.6111 43.539 15.5884 45.0053 16.3437 46.7207C17.1946 48.6536 17.7622 50.9032 18.1403 53.0526C18.4209 54.6489 18.5978 56.191 18.7088 57.5067Z" fill="#91C787"/>
<path d="M9.65699 19.0027C11.1565 19.0027 12.3721 17.7871 12.3721 16.2876C12.3721 14.7881 11.1565 13.5725 9.65699 13.5725C8.15748 13.5725 6.94189 14.7881 6.94189 16.2876C6.94189 17.7871 8.15748 19.0027 9.65699 19.0027Z" fill="#91C787"/>
<path d="M10.5315 42.3748C12.031 42.3748 13.2466 41.1592 13.2466 39.6597C13.2466 38.1602 12.031 36.9446 10.5315 36.9446C9.03199 36.9446 7.81641 38.1602 7.81641 39.6597C7.81641 41.1592 9.03199 42.3748 10.5315 42.3748Z" fill="#91C787"/>
<path d="M11.413 28.5588C14.5113 29.6917 17.6246 28.9647 17.6246 28.9647C17.6246 28.9647 15.7146 26.4008 12.6164 25.2679C9.51811 24.135 6.40479 24.862 6.40479 24.862C6.40479 24.862 8.31474 27.4259 11.413 28.5588Z" fill="#91C787"/>
<path d="M10.8877 49.2557C13.0593 50.0498 15.2446 49.5318 15.2446 49.5318C15.2446 49.5318 13.9089 47.7263 11.7373 46.9322C9.56564 46.1381 7.38037 46.6561 7.38037 46.6561C7.38037 46.6561 8.71602 48.4616 10.8877 49.2557Z" fill="#91C787"/>
<path d="M35.0752 60.2571C35.1727 60.2345 35.2692 60.2101 35.3658 60.1858C35.4515 60.1641 35.5363 60.1415 35.622 60.119C35.6265 59.9394 35.6329 59.7418 35.6392 59.5279C35.6924 57.8531 35.8178 55.1569 36.1138 51.9084C36.1301 51.7342 36.1463 51.5588 36.1626 51.3823C36.2681 50.2814 36.3918 49.1237 36.5397 47.9235C36.5443 47.8838 36.5497 47.845 36.5542 47.8053C36.6742 46.8325 36.8105 45.8336 36.9639 44.8158C37.0712 44.1038 37.1873 43.384 37.3122 42.6564C37.3212 42.6059 37.3302 42.5544 37.3392 42.5039C37.3753 42.2936 37.4123 42.0843 37.4502 41.8731C37.5558 41.2857 37.6686 40.6946 37.7868 40.1036C38.2028 38.0245 38.6982 35.9329 39.2893 33.898C39.8897 31.7877 40.6291 29.7195 41.5028 27.7069C42.1804 26.1434 42.9875 24.6394 43.9157 23.2104C43.9292 23.1896 43.9428 23.1698 43.9563 23.149C45.1429 21.3614 46.4992 19.8446 48.0476 18.7103L47.7264 18.2717C46.2429 19.3591 44.8821 20.8059 43.6441 22.6121C43.6378 22.6211 43.6323 22.6293 43.626 22.6383C42.695 24.0188 41.8824 25.4756 41.1969 26.9931C40.2789 29.0229 39.5045 31.1146 38.8796 33.2528C38.2876 35.2398 37.7567 37.3926 37.2869 39.7111C37.1218 40.5277 36.9642 41.3645 36.8141 42.2214C36.7888 42.3676 36.7635 42.5138 36.7383 42.6609C36.7383 42.6627 36.7374 42.6654 36.7374 42.6672C36.6986 42.8928 36.6616 43.1184 36.6237 43.3467C36.5298 43.9215 36.4414 44.4918 36.3584 45.0576C36.2302 45.9293 36.1144 46.7859 36.0109 47.6275C35.9767 47.9055 35.9436 48.1813 35.9117 48.455C35.8666 48.8412 35.8239 49.2223 35.7836 49.5983C35.7267 50.1217 35.6747 50.6339 35.6274 51.135L35.6139 51.2731C35.6067 51.3525 35.5995 51.4319 35.5923 51.5104C35.2259 55.4619 35.1113 58.6535 35.0752 60.2571Z" fill="#91C787"/>
<path d="M41.9927 57.6654C42.0026 57.66 42.0134 57.6546 42.0234 57.6492C42.2092 57.5526 42.3933 57.4543 42.5774 57.3532C42.6379 56.6331 42.7191 55.8418 42.8256 55.0098C42.8481 54.8383 42.8707 54.6642 42.8959 54.4891C42.9086 54.3953 42.9221 54.3005 42.9356 54.2049C43.0421 53.4721 43.1685 52.716 43.32 51.9562C43.9364 48.8556 44.9596 45.6865 46.6588 43.7302C46.7499 43.6246 46.8429 43.5236 46.9394 43.4252C47.1787 43.1766 47.4386 42.9487 47.7164 42.7439L47.3951 42.3063C47.0074 42.593 46.6506 42.9193 46.3303 43.2799C46.2175 43.4054 46.1075 43.5359 46.0001 43.6716C44.4363 45.6396 43.4599 48.5534 42.8517 51.4382C42.6929 52.1908 42.5594 52.9425 42.4457 53.6743C42.4168 53.8656 42.3891 54.0551 42.3627 54.2428C42.1867 55.4826 42.0703 56.6539 41.9927 57.6654Z" fill="#91C787"/>
<path d="M51.0818 18.6977C52.5813 18.6977 53.7969 17.4821 53.7969 15.9826C53.7969 14.483 52.5813 13.2675 51.0818 13.2675C49.5823 13.2675 48.3667 14.483 48.3667 15.9826C48.3667 17.4821 49.5823 18.6977 51.0818 18.6977Z" fill="#91C787"/>
<path d="M50.207 42.0698C51.7065 42.0698 52.9221 40.8542 52.9221 39.3547C52.9221 37.8552 51.7065 36.6396 50.207 36.6396C48.7075 36.6396 47.4919 37.8552 47.4919 39.3547C47.4919 40.8542 48.7075 42.0698 50.207 42.0698Z" fill="#91C787"/>
<path d="M49.3261 28.2538C46.2278 29.3867 43.1145 28.6596 43.1145 28.6596C43.1145 28.6596 45.0245 26.0958 48.1227 24.9628C51.221 23.8299 54.3343 24.557 54.3343 24.557C54.3343 24.557 52.4244 27.1208 49.3261 28.2538Z" fill="#91C787"/>
<path d="M49.8513 48.9506C47.6797 49.7447 45.4944 49.2267 45.4944 49.2267C45.4944 49.2267 46.83 47.4212 49.0017 46.6271C51.1733 45.833 53.3586 46.3511 53.3586 46.3511C53.3586 46.3511 52.0229 48.1566 49.8513 48.9506Z" fill="#91C787"/>
<path d="M30.5874 60.2798C36.4214 60.2893 42.1292 58.5812 46.9989 55.3684C45.8986 49.3558 41.7116 49.0132 41.7116 49.0132H18.6225C18.6225 49.0132 14.6715 49.3374 13.4375 54.8685C18.4581 58.4001 24.4491 60.2904 30.5874 60.2798Z" fill="#DF1545"/>
<path d="M30.2694 44.087C38.2284 44.087 44.6805 37.6349 44.6805 29.6759C44.6805 21.7169 38.2284 15.2649 30.2694 15.2649C22.3104 15.2649 15.8584 21.7169 15.8584 29.6759C15.8584 37.6349 22.3104 44.087 30.2694 44.087Z" fill="#333333"/>
<path opacity="0.1" d="M25.6196 41.6792H34.8535V49.0665C34.8535 50.2907 34.3673 51.4648 33.5019 52.3306C32.6364 53.1964 31.4625 53.683 30.2383 53.6835C29.0138 53.6835 27.8395 53.197 26.9737 52.3312C26.1078 51.4653 25.6214 50.291 25.6214 49.0665V41.6792H25.6196Z" fill="black"/>
<path d="M25.9121 41.3367H34.564C34.6416 41.3367 34.7161 41.3675 34.771 41.4224C34.8259 41.4773 34.8567 41.5518 34.8567 41.6294V48.724C34.8569 49.3305 34.7375 49.9311 34.5054 50.4915C34.2733 51.0518 33.9331 51.561 33.5042 51.9898C33.0752 52.4187 32.566 52.7588 32.0056 52.9908C31.4452 53.2227 30.8446 53.342 30.238 53.3418C29.0136 53.3418 27.8392 52.8554 26.9734 51.9895C26.1075 51.1237 25.6211 49.9493 25.6211 48.7248V41.6294C25.6211 41.5521 25.6517 41.4779 25.7062 41.423C25.7607 41.3682 25.8348 41.3371 25.9121 41.3367Z" fill="#D0CDE1"/>
<path opacity="0.1" d="M25.6357 45.1662C28.6117 46.278 31.8876 46.287 34.8696 45.1915V44.0554H25.6357V45.1662Z" fill="black"/>
<path d="M30.2698 45.7841C37.5796 45.7841 43.5054 39.8583 43.5054 32.5485C43.5054 25.2386 37.5796 19.3129 30.2698 19.3129C22.96 19.3129 17.0342 25.2386 17.0342 32.5485C17.0342 39.8583 22.96 45.7841 30.2698 45.7841Z" fill="#D0CDE1"/>
<path opacity="0.1" d="M20.8418 20.5093C20.8418 20.5093 26.4201 31.8319 42.1551 25.2565L38.4916 19.5122L31.9975 17.1814L20.8418 20.5093Z" fill="black"/>
<path d="M17.0292 34.8451C17.7093 34.8451 18.2606 33.8114 18.2606 32.5362C18.2606 31.261 17.7093 30.2273 17.0292 30.2273C16.3492 30.2273 15.7979 31.261 15.7979 32.5362C15.7979 33.8114 16.3492 34.8451 17.0292 34.8451Z" fill="#D0CDE1"/>
<path d="M43.5043 34.8451C44.1844 34.8451 44.7357 33.8114 44.7357 32.5362C44.7357 31.261 44.1844 30.2273 43.5043 30.2273C42.8243 30.2273 42.2729 31.261 42.2729 32.5362C42.2729 33.8114 42.8243 34.8451 43.5043 34.8451Z" fill="#D0CDE1"/>
<g clip-path="url(#clip0)">
<path d="M29.0703 16.5203V13.9688L26.995 15.2472C26.6723 15.4426 26.2854 15.5025 25.9187 15.4138C25.552 15.3252 25.2352 15.0952 25.0373 14.774C24.8395 14.4529 24.7766 14.0665 24.8623 13.6991C24.9481 13.3317 25.1756 13.0131 25.4952 12.8128L27.7742 11.4089L25.4952 10.0051C25.1724 9.80624 24.9418 9.48726 24.8541 9.11835C24.7665 8.74944 24.829 8.36082 25.0279 8.03798C25.2267 7.71515 25.5457 7.48453 25.9146 7.39688C26.2835 7.30923 26.6721 7.37172 26.995 7.57059L30.5 9.72978L34.005 7.57059C34.3278 7.37172 34.7164 7.30923 35.0853 7.39688C35.4543 7.48453 35.7732 7.71515 35.9721 8.03798C36.171 8.36082 36.2335 8.74944 36.1458 9.11835C36.0582 9.48726 35.8276 9.80624 35.5047 10.0051L33.2258 11.4089L35.5047 12.8128C35.6646 12.9113 35.8035 13.0403 35.9135 13.1924C36.0235 13.3446 36.1024 13.5169 36.1458 13.6995C36.1892 13.8822 36.1962 14.0716 36.1664 14.257C36.1366 14.4424 36.0706 14.6201 35.9721 14.7799C35.8736 14.9398 35.7446 15.0787 35.5925 15.1887C35.4403 15.2987 35.268 15.3776 35.0853 15.421C34.9027 15.4644 34.7133 15.4714 34.5279 15.4416C34.3425 15.4118 34.1648 15.3458 34.005 15.2473L31.9297 13.9689V16.5203C34.3062 16.8809 36.4588 18.1261 37.9561 20.0065C39.4535 21.8869 40.185 24.2637 40.0042 26.6606C39.8234 29.0575 38.7437 31.2977 36.9812 32.9322C35.2187 34.5667 32.9037 35.475 30.5 35.475C28.0962 35.475 25.7812 34.5667 24.0188 32.9322C22.2563 31.2977 21.1765 29.0575 20.9957 26.6606C20.8149 24.2637 21.5465 21.8869 23.0438 20.0065C24.5412 18.1261 26.6937 16.8809 29.0703 16.5203ZM30.5 32.616C31.8196 32.616 33.1095 32.2247 34.2067 31.4916C35.3039 30.7585 36.159 29.7164 36.664 28.4973C37.169 27.2782 37.3011 25.9367 37.0437 24.6425C36.7862 23.3483 36.1508 22.1595 35.2177 21.2264C34.2846 20.2933 33.0958 19.6579 31.8016 19.4004C30.5074 19.143 29.1659 19.2751 27.9468 19.7801C26.7276 20.2851 25.6856 21.1402 24.9525 22.2374C24.2194 23.3346 23.8281 24.6245 23.8281 25.9441C23.8301 27.713 24.5337 29.4088 25.7844 30.6596C27.0352 31.9104 28.7311 32.614 30.5 32.616Z" fill="#333333"/>
</g>
<defs>
<linearGradient id="paint0_linear" x1="30.5" y1="61" x2="30.5" y2="0" gradientUnits="userSpaceOnUse">
<stop stop-color="#808080" stop-opacity="0.25"/>
<stop offset="0.54" stop-color="#808080" stop-opacity="0.12"/>
<stop offset="1" stop-color="#808080" stop-opacity="0.1"/>
</linearGradient>
<clipPath id="clip0">
<rect width="30.5" height="10.065" fill="white" transform="translate(15.25 6.40503)"/>
</clipPath>
</defs>
</svg>
